{
    "shell-version": [
      "3.34"
    ],
    "uuid": "backslide@codeisland.org",
    "name": "BackSlide",
    "description": "Automatic background-image (wallpaper) slideshow for Gnome Shell",
    "original-author": "Lukas Knuth",
    "url": "https://bitbucket.org/LukasKnuth/backslide",
    "gettext-domain": "backslide"
}
